src/dump.vcd
$date
	Thu May 18 12:52:50 2023
$end
$version
	QuestaSim Version 10.6c
$end
$timescale
	1ns
$end

$scope module uvm_root $end
$upscope $end

$scope module tb $end
$upscope $end

$scope begin uvm_pkg $end
$var parameter 32 ! UVM_HDL_MAX_WIDTH $end
$var parameter 32 " UVM_STREAMBITS $end
$var parameter 32 # UVM_RADIX $end
$var parameter 32 $ UVM_MACRO_NUMFLAGS $end
$var parameter 32 % UVM_DEFAULT $end
$var parameter 32 & UVM_ALL_ON $end
$var parameter 32 ' UVM_FLAGS_ON $end
$var parameter 32 ( UVM_FLAGS_OFF $end
$var parameter 32 ) UVM_COPY $end
$var parameter 32 * UVM_NOCOPY $end
$var parameter 32 + UVM_COMPARE $end
$var parameter 32 , UVM_NOCOMPARE $end
$var parameter 32 - UVM_PRINT $end
$var parameter 32 . UVM_NOPRINT $end
$var parameter 32 / UVM_RECORD $end
$var parameter 32 0 UVM_NORECORD $end
$var parameter 32 1 UVM_PACK $end
$var parameter 32 2 UVM_NOPACK $end
$var parameter 32 3 UVM_PHYSICAL $end
$var parameter 32 4 UVM_ABSTRACT $end
$var parameter 32 5 UVM_READONLY $end
$var parameter 32 6 UVM_NODEFPRINT $end
$var parameter 32 7 UVM_MACRO_EXTRAS $end
$var parameter 32 8 UVM_FLAGS $end
$var parameter 32 9 UVM_UNPACK $end
$var parameter 32 : UVM_CHECK_FIELDS $end
$var parameter 32 ; UVM_END_DATA_EXTRA $end
$var parameter 32 < UVM_START_FUNCS $end
$var parameter 32 = UVM_SET $end
$var parameter 32 > UVM_SETINT $end
$var parameter 32 ? UVM_SETOBJ $end
$var parameter 32 @ UVM_SETSTR $end
$var parameter 32 A UVM_END_FUNCS $end
$var parameter 32 B UVM_STR_CRC_POLYNOMIAL $end
$var parameter 32 C UVM_STDOUT $end
$var parameter 32 D UVM_LINE_WIDTH $end
$var parameter 32 E UVM_NUM_LINES $end
$var parameter 32 F UVM_SMALL_STRING $end
$var parameter 32 G UVM_LARGE_STRING $end
$var reg 1 H uvm_start_uvm_declarations $end
$var integer 32 I uvm_global_random_seed $end
$var integer 32 J UVM_UNBOUNDED_CONNECTIONS $end

$scope function uvm_hdl_check_path $end
$var integer 32 K uvm_hdl_check_path $end
$upscope $end

$scope function uvm_hdl_deposit $end
$var integer 32 L uvm_hdl_deposit $end
$var reg 1024 M value [1023:0] $end
$upscope $end

$scope function uvm_hdl_force $end
$var integer 32 N uvm_hdl_force $end
$var reg 1024 O value [1023:0] $end
$upscope $end

$scope task uvm_hdl_force_time $end
$var reg 1024 P value [1023:0] $end
$var time 64 Q force_time $end
$upscope $end

$scope function uvm_hdl_release_and_read $end
$var integer 32 R uvm_hdl_release_and_read $end
$var reg 1024 S value [1023:0] $end
$upscope $end

$scope function uvm_hdl_release $end
$var integer 32 T uvm_hdl_release $end
$upscope $end

$scope function uvm_hdl_read $end
$var integer 32 U uvm_hdl_read $end
$var reg 1024 V value [1023:0] $end
$upscope $end

$scope function uvm_dpi_get_next_arg_c $end
$upscope $end

$scope function uvm_dpi_get_tool_name_c $end
$upscope $end

$scope function uvm_dpi_get_tool_version_c $end
$upscope $end

$scope function uvm_dpi_get_next_arg $end
$upscope $end

$scope function uvm_dpi_get_tool_name $end
$upscope $end

$scope function uvm_dpi_get_tool_version $end
$upscope $end

$scope function uvm_dpi_regcomp $end
$upscope $end

$scope function uvm_dpi_regexec $end
$var integer 32 W uvm_dpi_regexec $end
$upscope $end

$scope function uvm_dpi_regfree $end
$upscope $end

$scope function uvm_re_match $end
$var integer 32 X uvm_re_match $end
$upscope $end

$scope function uvm_dump_re_cache $end
$upscope $end

$scope function uvm_glob_to_re $end
$upscope $end

$scope function uvm_revision_string $end
$upscope $end

$scope function uvm_radix_to_string $end
$var integer 32 Y radix $end
$upscope $end

$scope function uvm_instance_scope $end
$var reg 8 Z c [7:0] $end
$var integer 32 [ pos $end
$upscope $end

$scope function uvm_oneway_hash $end
$var integer 32 \ uvm_oneway_hash $end
$var integer 32 ] seed $end
$var reg 1 ^ msb $end
$var reg 8 _ current_byte [7:0] $end
$var reg 32 ` crc1 [31:0] $end
$upscope $end

$scope function uvm_create_random_seed $end
$var integer 32 a uvm_create_random_seed $end
$upscope $end

$scope function uvm_object_value_str $end
$upscope $end

$scope function uvm_leaf_scope $end
$var reg 8 b scope_separator [7:0] $end
$var reg 8 c bracket_match [7:0] $end
$var integer 32 d pos $end
$var integer 32 e bmatches $end
$upscope $end

$scope function uvm_vector_to_string $end
$var reg 4096 f value [4095:0] $end
$var integer 32 g size $end
$var integer 32 h radix $end
$upscope $end

$scope function uvm_get_array_index_int $end
$var integer 32 i uvm_get_array_index_int $end
$var reg 1 j is_wildcard $end
$var integer 32 k i $end
$upscope $end

$scope function uvm_get_array_index_string $end
$var reg 1 l is_wildcard $end
$var integer 32 m i $end
$upscope $end

$scope function uvm_is_array $end
$var reg 1 n uvm_is_array $end
$upscope $end

$scope function uvm_has_wildcard $end
$upscope $end

$scope task run_test $end
$upscope $end

$scope function global_stop_request $end
$upscope $end

$scope function set_global_timeout $end
$var time 64 o timeout $end
$var reg 1 p overridable $end
$upscope $end

$scope function set_global_stop_timeout $end
$var time 64 q timeout $end
$upscope $end

$scope function uvm_report_enabled $end
$var reg 1 r uvm_report_enabled $end
$var integer 32 s verbosity $end
$var reg 2 t severity [1:0] $end
$upscope $end

$scope function uvm_report $end
$var reg 2 u severity [1:0] $end
$var integer 32 v verbosity $end
$var integer 32 w line $end
$upscope $end

$scope function uvm_report_info $end
$var integer 32 x verbosity $end
$var integer 32 y line $end
$upscope $end

$scope function uvm_report_warning $end
$var integer 32 z verbosity $end
$var integer 32 { line $end
$upscope $end

$scope function uvm_report_error $end
$var integer 32 | verbosity $end
$var integer 32 } line $end
$upscope $end

$scope function uvm_report_fatal $end
$var integer 32 ~ verbosity $end
$var integer 32 !! line $end
$upscope $end

$scope function uvm_string_to_severity $end
$var reg 1 "! uvm_string_to_severity $end
$var reg 2 #! sev [1:0] $end
$upscope $end

$scope function uvm_string_to_action $end
$upscope $end

$scope function set_config_int $end
$var reg 4096 $! value [4095:0] $end
$upscope $end

$scope function set_config_object $end
$var reg 1 %! clone $end
$upscope $end

$scope function set_config_string $end
$upscope $end

$scope function uvm_is_match $end
$var reg 1 &! uvm_is_match $end
$upscope $end

$scope function uvm_string_to_bits $end
$var reg 115200 '! uvm_string_to_bits [115199:0] $end
$upscope $end

$scope function uvm_bits_to_string $end
$var reg 115200 (! str [115199:0] $end
$upscope $end

$scope task uvm_wait_for_nba_region $end
$var integer 32 )! nba $end
$var integer 32 *! next_nba $end
$upscope $end

$scope function uvm_split_string $end
$upscope $end

$scope function uvm_hdl_concat2string $end
$upscope $end
$upscope $end

$scope begin one $end
$upscope $end

$scope begin top_sv_unit $end
$upscope $end

$scope begin std $end
$upscope $end

$scope begin questa_uvm_pkg $end
$upscope $end
$enddefinitions $end
#0
$dumpvars
0l
0n
0"!
b0 #!
bx '!
bx (!
bx M
bx O
bx P
bx S
bx V
1H
1^
b1110010 _
b1111001011100110010001000010011 `
bx f
0j
0p
0r
b0 t
b0 u
bx $!
0%!
0&!
b10000000000 !
b1000000000000 "
b1111000000000000000000000000 #
b10001 $
b10101010101 %
b101010101 &
b101010101 '
b0 (
b1 )
b10 *
b100 +
b1000 ,
b10000 -
b100000 .
b1000000 /
b10000000 0
b100000000 1
b1000000000 2
b10000000000000 3
b100000000000000 4
b1000000000000000 5
b10000000000000000 6
b100000000000000000 7
b100000000000000001 8
b100000000000000010 9
b100000000000000011 :
b100000000000000100 ;
b100000000000000101 <
b100000000000000110 =
b100000000000000110 >
b100000000000000111 ?
b100000000000001000 @
b100000000000001000 A
b100110000010001110110110110 B
b1 C
b1111000 D
b1111000 E
b1110111111 F
b11100000111111111 G
b0 Y
b0 b
b0 c
b0 d
b0 e
b0 m
b0 K
b0 L
b0 N
b0 R
b0 T
b0 U
b1 W
b0 X
b1101001011000001111100000011110 I
b101110 Z
b111 [
b1010110001111101000010010100100 \
b1101001011000001111100000011110 ]
b1011001101111011110011100010000 a
b0 g
b0 h
b0 i
b0 k
b111110100 s
b0 v
b0 w
b11001000 x
b11011001 y
b0 z
b0 {
b0 |
b0 }
b0 ~
b0 !!
b100100 )!
b100100 *!
b11111111111111111111111111111111 J
bx Q
bx o
bx q
$end
#20
b100101 *!
b100101 )!
b1010110001111101000010010100111 a
#40
b100110 *!
b100110 )!
b1010110001111101000010010101010 a
#60
b100111 *!
b100111 )!
b1010110001111101000010010101110 a
#80
b101000 *!
b101000 )!
b1010110001111101000010010110011 a
#100
b101001 *!
b101001 )!
b1010110001111101000010010111001 a
#120
b101010 *!
b101010 )!
b1010110001111101000010011000000 a
#140
b101011 *!
b101011 )!
b1010110001111101000010011001000 a
#160
b101100 *!
b101100 )!
b1010110001111101000010011010001 a
#180
b101101 *!
b101101 )!
b1010110001111101000010011011011 a
#200
b101110 *!
b101110 )!
b1010110001111101000010011100110 a
#220
b101111 *!
b101111 )!
b1010110001111101000010011110010 a
#240
b110000 *!
b110000 )!
b1010110001111101000010011111111 a
#260
b110001 *!
b110001 )!
b1010110001111101000010100001101 a
#280
b110010 *!
b110010 )!
#300
b110011 *!
b110100 *!
b110101 *!
b110011 )!
b110100 )!
b110101 )!
b110110 *!
b110111 *!
b110110 )!
b110111 )!
b1011001101111011110011100100010 a
b1010111001100000001010110100 a
b11110001111001110101100010110001 a
b10000101100111011011000010110101 a
b10000000000111100011101110010110 a
b1011000101000101010010100111110 a
b101010000000011001110010100111 a
b11111010111011100000001010111001 a
b10001101101111100001001011001100 a
b110001011001111100001000 a
b110110010111111000000111110011 a
b11001110000010111010100010011010 a
b11010011010000011101001100111111 a
b1001011011101000010000010110 a
b11111110000101001100001100000000 a
b1001000001000100010011110010001 a
b11011110000110111110100100100100 a
b1000001111111010101001000010111 a
b110001011010100100101101011 a
b10001101110001010000100101000100 a
b1110110011100010101011100100111 a
b1010101010110101001011100110010 a
b10100010000010011100111101111010 a
b111000011000110011100110101111 a
b11011100000111001000010000111110 a
b1011001101111011110011100110101 a
b1010111001100000001011000111 a
b11110001111001110101100011000100 a
b10000101100111011011000011001000 a
b10000000000111100011101110101001 a
b1011000101000101010010101010001 a
b101010000000011001110010111010 a
b11111010111011100000001011001100 a
b10001101101111100001001011011111 a
b110001011001111100011011 a
b110110010111111000001000000110 a
b11001110000010111010100010101101 a
b11010011010000011101001101010010 a
b1001011011101000010000101001 a
b11111110000101001100001100010011 a
b1001000001000100010011110100100 a
b11011110000110111110100100110111 a
b1000001111111010101001000101010 a
b110001011010100100101111110 a
b10001101110001010000100101010111 a
b1110110011100010101011100111010 a
b1010101010110101001011101000101 a
b10100010000010011100111110001101 a
b111000011000110011100111000010 a
b11011100000111001000010001010001 a
b1011001101111011110011101001001 a
b1010111001100000001011011011 a
b11110001111001110101100011011000 a
b10000101100111011011000011011100 a
b10000000000111100011101110111101 a
b1011000101000101010010101100101 a
b101010000000011001110011001110 a
b11111010111011100000001011100000 a
b10001101101111100001001011110011 a
b110001011001111100101111 a
b110110010111111000001000011010 a
b11001110000010111010100011000001 a
b11010011010000011101001101100110 a
b1001011011101000010000111101 a
b11111110000101001100001100100111 a
b1001000001000100010011110111000 a
b11011110000110111110100101001011 a
b1000001111111010101001000111110 a
b110001011010100100110010010 a
b10001101110001010000100101101011 a
b1110110011100010101011101001110 a
b1010101010110101001011101011001 a
b10100010000010011100111110100001 a
b111000011000110011100111010110 a
b11011100000111001000010001100101 a
b11011100000111001000010001111010 a
b111000011000110011100111101011 a
b10100010000010011100111110110110 a
b10001101110001010000100110000000 a
b11110001111001110101100011101101 a
b1011001101111011110011101011110 a
b1010111001100000001011110000 a
b10000000000111100011101111010010 a
b10000101100111011011000011110001 a
b110001011010100100110100111 a
b110001011001111101000100 a
b1011000101000101010010101111010 a
b101010000000011001110011100011 a
b11111010111011100000001011110101 a
b10001101101111100001001100001000 a
b110110010111111000001000101111 a
b11001110000010111010100011010110 a
b1000001111111010101001001010011 a
b11010011010000011101001101111011 a
b1001011011101000010001010010 a
b11111110000101001100001100111100 a
b1001000001000100010011111001101 a
b11011110000110111110100101100000 a
b1010101010110101001011101101110 a
b1110110011100010101011101100011 a
